{
  "levels": [
    {
      "level": "",
      "mode": "default",
      "rows": [
        [
          {
            "keyval": "0xff09",
            "label": "Tab",
            "width": 2
          },
          {
            "action": "modifier",
            "keyval": "0xffe3",
            "label": "Ctrl",
            "width": 2
          },
          {
            "action": "modifier",
            "keyval": "0xffe9",
            "label": "Alt",
            "width": 2
          },
          {
            "iconName": "go-up-symbolic",
            "keyval": "0xff52",
            "width": 1
          },
          {
            "iconName": "go-down-symbolic",
            "keyval": "0xff54",
            "width": 1
          },
          {
            "iconName": "go-previous-symbolic",
            "keyval": "0xff51",
            "width": 1
          },
          {
            "iconName": "go-next-symbolic",
            "keyval": "0xff53",
            "width": 1
          }
        ],
        [
          {
            "strings": [
              "я"
            ]
          },
          {
            "strings": [
              "в"
            ]
          },
          {
            "strings": [
              "е"
            ]
          },
          {
            "strings": [
              "р"
            ]
          },
          {
            "strings": [
              "т"
            ]
          },
          {
            "strings": [
              "ъ"
            ]
          },
          {
            "strings": [
              "у"
            ]
          },
          {
            "strings": [
              "и",
              "ѝ"
            ]
          },
          {
            "strings": [
              "о"
            ]
          },
          {
            "strings": [
              "п"
            ]
          },
          {
            "strings": [
              "ч"
            ]
          }
        ],
        [
          {
            "strings": [
              "а"
            ]
          },
          {
            "strings": [
              "с"
            ]
          },
          {
            "strings": [
              "д"
            ]
          },
          {
            "strings": [
              "ф"
            ]
          },
          {
            "strings": [
              "г"
            ]
          },
          {
            "strings": [
              "х"
            ]
          },
          {
            "strings": [
              "й"
            ]
          },
          {
            "strings": [
              "к"
            ]
          },
          {
            "strings": [
              "л"
            ]
          },
          {
            "strings": [
              "ш"
            ]
          },
          {
            "strings": [
              "щ"
            ]
          }
        ],
        [
          {
            "action": "levelSwitch",
            "iconName": "keyboard-shift-symbolic",
            "level": 1,
            "width": 1.5
          },
          {
            "strings": [
              "з"
            ]
          },
          {
            "strings": [
              "ь"
            ]
          },
          {
            "strings": [
              "ц"
            ]
          },
          {
            "strings": [
              "ж"
            ]
          },
          {
            "strings": [
              "б"
            ]
          },
          {
            "strings": [
              "н"
            ]
          },
          {
            "strings": [
              "м"
            ]
          },
          {
            "strings": [
              "ю"
            ]
          },
          {
            "action": "delete",
            "iconName": "edit-clear-symbolic",
            "width": 1.5
          }
        ],
        [
          {
            "action": "levelSwitch",
            "label": "123",
            "level": 2,
            "width": 1.5
          },
          {
            "action": "emoji",
            "iconName": "smile-symbolic",
            "width": 1
          },
          {
            "strings": [
              ","
            ]
          },
          {
            "strings": [
              " "
            ],
            "width": 4
          },
          {
            "strings": [
              ".",
              "#",
              "!",
              ",",
              "?",
              "-",
              ":",
              "'",
              "@"
            ]
          },
          {
            "iconName": "keyboard-enter-symbolic",
            "keyval": "0xff0d",
            "width": 1.5
          }
        ]
      ]
    },
    {
      "level": "shift",
      "mode": "latched",
      "rows": [
        [
          {
            "keyval": "0xff09",
            "label": "Tab",
            "width": 2
          },
          {
            "action": "modifier",
            "keyval": "0xffe3",
            "label": "Ctrl",
            "width": 2
          },
          {
            "action": "modifier",
            "keyval": "0xffe9",
            "label": "Alt",
            "width": 2
          },
          {
            "iconName": "go-up-symbolic",
            "keyval": "0xff52",
            "width": 1
          },
          {
            "iconName": "go-down-symbolic",
            "keyval": "0xff54",
            "width": 1
          },
          {
            "iconName": "go-previous-symbolic",
            "keyval": "0xff51",
            "width": 1
          },
          {
            "iconName": "go-next-symbolic",
            "keyval": "0xff53",
            "width": 1
          }
        ],
        [
          {
            "strings": [
              "Я"
            ]
          },
          {
            "strings": [
              "В"
            ]
          },
          {
            "strings": [
              "Е"
            ]
          },
          {
            "strings": [
              "Р"
            ]
          },
          {
            "strings": [
              "Т"
            ]
          },
          {
            "strings": [
              "Ъ"
            ]
          },
          {
            "strings": [
              "У"
            ]
          },
          {
            "strings": [
              "И",
              "Ѝ"
            ]
          },
          {
            "strings": [
              "О"
            ]
          },
          {
            "strings": [
              "П"
            ]
          },
          {
            "strings": [
              "Ч"
            ]
          }
        ],
        [
          {
            "strings": [
              "А"
            ]
          },
          {
            "strings": [
              "С"
            ]
          },
          {
            "strings": [
              "Д"
            ]
          },
          {
            "strings": [
              "Ф"
            ]
          },
          {
            "strings": [
              "Г"
            ]
          },
          {
            "strings": [
              "Х"
            ]
          },
          {
            "strings": [
              "Й"
            ]
          },
          {
            "strings": [
              "К"
            ]
          },
          {
            "strings": [
              "Л"
            ]
          },
          {
            "strings": [
              "Ш"
            ]
          },
          {
            "strings": [
              "Щ"
            ]
          }
        ],
        [
          {
            "action": "levelSwitch",
            "iconName": "keyboard-shift-symbolic",
            "level": 0,
            "width": 1.5
          },
          {
            "strings": [
              "З"
            ]
          },
          {
            "strings": [
              "Ь"
            ]
          },
          {
            "strings": [
              "Ц"
            ]
          },
          {
            "strings": [
              "Ж"
            ]
          },
          {
            "strings": [
              "Б"
            ]
          },
          {
            "strings": [
              "Н"
            ]
          },
          {
            "strings": [
              "М"
            ]
          },
          {
            "strings": [
              "Ю"
            ]
          },
          {
            "action": "delete",
            "iconName": "edit-clear-symbolic",
            "width": 1.5
          }
        ],
        [
          {
            "action": "levelSwitch",
            "label": "123",
            "level": 2,
            "width": 1.5
          },
          {
            "action": "emoji",
            "iconName": "smile-symbolic",
            "width": 1
          },
          {
            "strings": [
              ","
            ]
          },
          {
            "strings": [
              " "
            ],
            "width": 4
          },
          {
            "strings": [
              ".",
              "#",
              "!",
              ",",
              "?",
              "-",
              ":",
              "'",
              "@"
            ]
          },
          {
            "iconName": "keyboard-enter-symbolic",
            "keyval": "0xff0d",
            "width": 1.5
          }
        ]
      ]
    },
    {
      "level": "opt",
      "mode": "locked",
      "rows": [
        [
          {
            "keyval": "0xff09",
            "label": "Tab",
            "width": 2
          },
          {
            "action": "modifier",
            "keyval": "0xffe3",
            "label": "Ctrl",
            "width": 2
          },
          {
            "action": "modifier",
            "keyval": "0xffe9",
            "label": "Alt",
            "width": 2
          },
          {
            "iconName": "go-up-symbolic",
            "keyval": "0xff52",
            "width": 1
          },
          {
            "iconName": "go-down-symbolic",
            "keyval": "0xff54",
            "width": 1
          },
          {
            "iconName": "go-previous-symbolic",
            "keyval": "0xff51",
            "width": 1
          },
          {
            "iconName": "go-next-symbolic",
            "keyval": "0xff53",
            "width": 1
          }
        ],
        [
          {
            "strings": [
              "1",
              "¹",
              "½",
              "⅓",
              "¼",
              "⅛"
            ]
          },
          {
            "strings": [
              "2",
              "²",
              "⅔"
            ]
          },
          {
            "strings": [
              "3",
              "³",
              "¾",
              "⅜"
            ]
          },
          {
            "strings": [
              "4",
              "⁴"
            ]
          },
          {
            "strings": [
              "5",
              "⅝"
            ]
          },
          {
            "strings": [
              "6"
            ]
          },
          {
            "strings": [
              "7",
              "⅞"
            ]
          },
          {
            "strings": [
              "8"
            ]
          },
          {
            "strings": [
              "9"
            ]
          },
          {
            "strings": [
              "0",
              "ⁿ",
              "∅"
            ]
          }
        ],
        [
          {
            "strings": [
              "@"
            ]
          },
          {
            "strings": [
              "#"
            ]
          },
          {
            "strings": [
              "$",
              "¢",
              "£",
              "€",
              "¥",
              "₱"
            ]
          },
          {
            "strings": [
              "%",
              "‰"
            ]
          },
          {
            "strings": [
              "&"
            ]
          },
          {
            "strings": [
              "-",
              "_",
              "–",
              "—",
              "·"
            ]
          },
          {
            "strings": [
              "+",
              "±"
            ]
          },
          {
            "strings": [
              "(",
              "<",
              "{",
              "["
            ]
          },
          {
            "strings": [
              ")",
              ">",
              "}",
              "]"
            ]
          },
          {
            "strings": [
              "/"
            ]
          }
        ],
        [
          {
            "action": "levelSwitch",
            "label": "=/<",
            "level": 3,
            "width": 1.5
          },
          {
            "strings": [
              "*",
              "†",
              "‡",
              "★"
            ]
          },
          {
            "strings": [
              "\"",
              "“",
              "”",
              "«",
              "»"
            ]
          },
          {
            "strings": [
              "'",
              "‘",
              "’",
              "‹",
              "›"
            ]
          },
          {
            "strings": [
              ":"
            ]
          },
          {
            "strings": [
              ";"
            ]
          },
          {
            "strings": [
              "!",
              "¡"
            ]
          },
          {
            "strings": [
              "?",
              "¿"
            ]
          },
          {
            "action": "delete",
            "iconName": "edit-clear-symbolic",
            "width": 1.5
          }
        ],
        [
          {
            "action": "levelSwitch",
            "label": "ABC",
            "level": 0,
            "width": 1.5
          },
          {
            "action": "emoji",
            "iconName": "smile-symbolic",
            "width": 1
          },
          {
            "strings": [
              ","
            ]
          },
          {
            "strings": [
              " "
            ],
            "width": 4
          },
          {
            "strings": [
              ".",
              "…"
            ]
          },
          {
            "iconName": "keyboard-enter-symbolic",
            "keyval": "0xff0d",
            "width": 1.5
          }
        ]
      ]
    },
    {
      "level": "opt+shift",
      "mode": "locked",
      "rows": [
        [
          {
            "keyval": "0xff09",
            "label": "Tab",
            "width": 2
          },
          {
            "action": "modifier",
            "keyval": "0xffe3",
            "label": "Ctrl",
            "width": 2
          },
          {
            "action": "modifier",
            "keyval": "0xffe9",
            "label": "Alt",
            "width": 2
          },
          {
            "iconName": "go-up-symbolic",
            "keyval": "0xff52",
            "width": 1
          },
          {
            "iconName": "go-down-symbolic",
            "keyval": "0xff54",
            "width": 1
          },
          {
            "iconName": "go-previous-symbolic",
            "keyval": "0xff51",
            "width": 1
          },
          {
            "iconName": "go-next-symbolic",
            "keyval": "0xff53",
            "width": 1
          }
        ],
        [
          {
            "strings": [
              "~"
            ]
          },
          {
            "strings": [
              "`"
            ]
          },
          {
            "strings": [
              "|"
            ]
          },
          {
            "strings": [
              "•",
              "♪",
              "♥",
              "♠",
              "♦",
              "♣"
            ]
          },
          {
            "strings": [
              "√"
            ]
          },
          {
            "strings": [
              "Π",
              "π"
            ]
          },
          {
            "strings": [
              "÷"
            ]
          },
          {
            "strings": [
              "×"
            ]
          },
          {
            "strings": [
              "¶",
              "§"
            ]
          },
          {
            "strings": [
              "∆"
            ]
          }
        ],
        [
          {
            "strings": [
              "£"
            ]
          },
          {
            "strings": [
              "¢"
            ]
          },
          {
            "strings": [
              "€"
            ]
          },
          {
            "strings": [
              "¥"
            ]
          },
          {
            "strings": [
              "^",
              "↑",
              "↓",
              "←",
              "→"
            ]
          },
          {
            "strings": [
              "_"
            ]
          },
          {
            "strings": [
              "=",
              "≠",
              "≈",
              "∞"
            ]
          },
          {
            "strings": [
              "{"
            ]
          },
          {
            "strings": [
              "}"
            ]
          },
          {
            "strings": [
              "\\"
            ]
          }
        ],
        [
          {
            "action": "levelSwitch",
            "label": "123",
            "level": 2,
            "width": 1.5
          },
          {
            "strings": [
              "°",
              "′",
              "″"
            ]
          },
          {
            "strings": [
              "©"
            ]
          },
          {
            "strings": [
              "®"
            ]
          },
          {
            "strings": [
              "™"
            ]
          },
          {
            "strings": [
              "℅"
            ]
          },
          {
            "strings": [
              "["
            ]
          },
          {
            "strings": [
              "]"
            ]
          },
          {
            "action": "delete",
            "iconName": "edit-clear-symbolic",
            "width": 1.5
          }
        ],
        [
          {
            "action": "levelSwitch",
            "label": "ABC",
            "level": 0,
            "width": 1.5
          },
          {
            "action": "emoji",
            "iconName": "smile-symbolic",
            "width": 1
          },
          {
            "strings": [
              "<",
              "‹",
              "≤",
              "«"
            ]
          },
          {
            "strings": [
              " "
            ],
            "width": 4
          },
          {
            "strings": [
              ">",
              "›",
              "≥",
              "»"
            ]
          },
          {
            "iconName": "keyboard-enter-symbolic",
            "keyval": "0xff0d",
            "width": 1.5
          }
        ]
      ]
    }
  ],
  "locale": "bg",
  "name": "Bulgarian"
}